nameLast,nameFirst,email,schoolID
Kimmett,Holly,hkimmett@oswego.edu,134791116
Lassar,Mario,mlassar@oswego.edu,501486321
Greeley,Isabela,igreeley@oswego.edu,417835495
Poillucci,Pranav,ppoillucci@oswego.edu,596209755
Gilchrist,Carlie,cgilchrist@oswego.edu,256068829
Akula,Moriah,makula@oswego.edu,408184476
Solnick,Clayton,csolnick@oswego.edu,186551155
Curran,Anne,acurran@oswego.edu,633113115
Blaisdell-denoto,Emely,eblaisdell-denoto@oswego.edu,353197565
Reiser,Carl,creiser@oswego.edu,553641900
Cordue,Parker,pcordue@oswego.edu,937324025
Hatfield,Leroy,lhatfield@oswego.edu,145859015
